Chapter 2 Data Cleaning | A Taxonomy of Data Synthesis: A Tutorial
…
2.1 Berlin Aging Study (BASE-I)

The Berlin Aging Study (I) is a longitudinal interdisciplinary study of aging that began in 1990. The data are available, by application, from https://www.base-berlin.mpg.de/en/system/files/media/pdf/a97295f241d06bf496b5eeae4251a34e/base-data-transfer_form_online.pdf.

Participants included 516 individuals over 70, stratified on age and gender, recruited from a sample of the Berlin City Registry. To date, most participants are deceased, with most attrition from the study due to mortality or severe health complications. Since 1990, there have been seven follow-up measurement occasions (8 total).

Sample sizes vary over time, from 516 (T1) to 23 (T8). To ensure adequate sample sizes, the present study will use data up to the fourth wave, which included 164 participants with full data. This provides 99% power to detect a correlation effect size of ~.32, two-tailed alpha at .05.

2.1.1 Load Data

(basei_codebook <- (codebook %>% filter(study == "BASE-I"))$codebook[[1]] %>%
  mutate(orig_itemname = str_to_lower(orig_itemname)))

## # A tibble: 138 × 17
##    study  dataset   category name  itemname  wave  year stem  orig_itemname description scale reverse_code recode  mini  maxi
##    <chr>  <chr>     <chr>    <chr> <chr>    <dbl> <dbl> <chr> <chr>         <chr>       <chr> <chr>        <chr>  <dbl> <dbl>
##  1 base-i social    covaria… educ… eduYears     1  1990 <NA>  s1kon28       Years of E… "int… <NA>         ifels…    NA    NA
##  2 base-i social    covaria… educ… eduYears     1  1990 <NA>  z1e10         General ed… "1 =… <NA>         ifels…    NA    NA
##  3 base-i demograp… covaria… gend… sex          1  1990 esex  z1esex        Sex of par…  <NA> <NA>         ifels…    NA    NA
##  4 base-i demograp… covaria… gend… sex          2  1993 esex  z2esex        Sex of par…  <NA> <NA>         ifels…    NA    NA
##  5 base-i demograp… covaria… gend… sex          3  1995 esex  z3esex        Sex of par…  <NA> <NA>         ifels…    NA    NA
##  6 base-i demograp… covaria… gend… sex          4  1997 esex  z4esex        Sex of par…  <NA> <NA>         ifels…    NA    NA
##  7 base-i demograp… covaria… gend… sex          5  2000 esex  z5esex        Sex of par…  <NA> <NA>         ifels…    NA    NA
##  8 base-i demograp… covaria… gend… sex          6  2004 esex  z6esex        Sex of par…  <NA> <NA>         ifels…    NA    NA
##  9 base-i demograp… covaria… gend… sex          7  2005 esex  z7esex        Sex of par…  <NA> <NA>         ifels…    NA    NA
## 10 base-i demograp… covaria… SRhe… SRhealth     1  1990 E13X… z1e13x1r      How would … "1 =… yes          ifels…     1     5
## # ℹ 128 more rows
## # ℹ 2 more variables: comp_rule <chr>, long_rule <chr>
…
 sprintf("%s/gsoep/%shbrutto.sav", data_path, WL) %>% haven::read_sav(.) %>%
    full_join(sprintf("%s/gsoep/%sh.sav", data_path, WL) %>% haven::read_sav(.)) %>%
    select(one_of(old.names)) %>%
    gather(key = orig_itemname, value = value, -hhnr, na.rm = T) %>%
    full_join(p %>% select(persnr, hhnr) %>% distinct()) %>%
    full_join(p) 
}

gsoep_codebook <- (codebook %>% filter(study == "GSOEP"))$codebook[[1]] %>%
  mutate(orig_itemname = str_to_lower(orig_itemname))
gsoep_codebook

## # A tibble: 250 × 17
##    study dataset category   name  itemname  wave waveletter  year orig_itemname description   scale reverse_code recode  mini
##    <chr> <chr>   <chr>      <chr> <chr>    <dbl> <chr>      <dbl> <chr>         <chr>         <chr> <chr>        <chr>  <dbl>
##  1 gsoep apequiv covariates age   age          1 a           1984 d1110184      Age of Indiv… <NA>  <NA>         ifels…    NA
##  2 gsoep bpequiv covariates age   age          2 b           1985 d1110185      Age of Indiv… <NA>  <NA>         ifels…    NA
##  3 gsoep cpequiv covariates age   age          3 c           1986 d1110186      Age of Indiv… <NA>  <NA>         ifels…    NA
##  4 gsoep dpequiv covariates age   age          4 d           1987 d1110187      Age of Indiv… <NA>  <NA>         ifels…    NA
##  5 gsoep epequiv covariates age   age          5 e           1988 d1110188      Age of Indiv… <NA>  <NA>         ifels…    NA
##  6 gsoep fpequiv covariates age   age          6 f           1989 d1110189      Age of Indiv… <NA>  <NA>         ifels…    NA
##  7 gsoep gpequiv covariates age   age          7 g           1990 d1110190      Age of Indiv… <NA>  <NA>         ifels…    NA
##  8 gsoep hpequiv covariates age   age          8 h           1991 d1110191      Age of Indiv… <NA>  <NA>         ifels…    NA
##  9 gsoep ipequiv covariates age   age          9 i           1992 d1110192      Age of Indiv… <NA>  <NA>         ifels…    NA
## 10 gsoep jpequiv covariates age   age         10 j           1993 d1110193      Age of Indiv… <NA>  <NA>         ifels…    NA
## # ℹ 240 more rows
## # ℹ 3 more variables: maxi <dbl>, comp_rule <chr>, long_rule <chr>
…
Sample sizes vary by year, ranging from 12,408 (2004) to 17,693 (2016). This provides 99% power to detect a zero-order correlation effect size of ~.03, two tailed at alpha .05.

2.4.1 Load Data

hilda_read_fun <- function(Year, WL){
  old.names <- (hilda_codebook %>% filter(year == Year | year == 0))$orig_itemname
  sprintf("%s/hilda/Combined %s180c.sav", data_path, WL) %>% haven::read_sav(.) %>%
    select(one_of(old.names)) 
}

hilda_codebook <- (codebook %>% filter(study == "HILDA"))$codebook[[1]]
hilda_codebook

## # A tibble: 217 × 17
##    study dataset category   name   itemname wave_letter ...7   year orig_itemname description scale reverse_code recode  mini
##    <chr> <lgl>   <chr>      <chr>  <chr>    <chr>       <chr> <dbl> <chr>         <chr>       <chr> <chr>        <chr>  <dbl>
##  1 hilda NA      covariates educa… educati… A           01     2001 aedhigh1      Highest ed… 1=po… <NA>         ifels…    NA
##  2 hilda NA      covariates educa… educati… B           02     2002 bedhigh1      Highest ed… 1=po… <NA>         ifels…    NA
##  3 hilda NA      covariates educa… educati… C           03     2003 cedhigh1      Highest ed… 1=po… <NA>         ifels…    NA
##  4 hilda NA      covariates educa… educati… D           04     2004 dedhigh1      Highest ed… 1=po… <NA>         ifels…    NA
##  5 hilda NA      covariates educa… educati… E           05     2005 eedhigh1      Highest ed… 1=po… <NA>         ifels…    NA
##  6 hilda NA      covariates educa… educati… F           06     2006 fedhigh1      Highest ed… 1=po… <NA>         ifels…    NA
##  7 hilda NA      covariates educa… educati… G           07     2007 gedhigh1      Highest ed… 1=po… <NA>         ifels…    NA
##  8 hilda NA      covariates educa… educati… H           08     2008 hedhigh1      Highest ed… 1=po… <NA>         ifels…    NA
##  9 hilda NA      covariates educa… educati… I           09     2009 iedhigh1      Highest ed… 1=po… <NA>         ifels…    NA
## 10 hilda NA      covariates educa… educati… J           10     2010 jedhigh1      Highest ed… 1=po… <NA>         ifels…    NA
## # ℹ 207 more rows
## # ℹ 3 more variables: maxi <dbl>, comp_rule <chr>, long_rule <chr>
…
hrs_codebook <- (codebook %>% filter(study == "HRS"))$codebook[[1]] %>% 
  mutate(orig_itemname = str_to_upper(orig_itemname)) %>%
  mutate_at(vars(orig_itemname, name, itemname), ~str_remove_all(., "[[:space:]]"))
hrs_codebook

## # A tibble: 183 × 17
##    study dataset category   name    itemname  wave waveletter  year orig_itemname description scale reverse_code recode  mini
##    <chr> <chr>   <chr>      <chr>   <chr>    <dbl> <lgl>      <dbl> <chr>         <chr>       <chr> <chr>        <chr>  <dbl>
##  1 hrs   Rand    covariates educat… eduYears     1 NA          1992 RAEDYRS       R Years of… ".M=… <NA>         ifels…    NA
##  2 hrs   Rand    covariates gender  demgend…     1 NA          1992 RAGENDER      R Gender    ".M=… <NA>         ifels…    NA
##  3 hrs   Rand    covariates SRheal… rHlthSR      1 NA          1992 R1SHLT        W1 Self-re… "1.E… yes          ifels…     1
##  4 hrs   Rand    covariates SRheal… rHlthSR      2 NA          1994 R2SHLT        W2 Self-re… "1.E… yes          ifels…     1
##  5 hrs   Rand    covariates SRheal… rHlthSR      3 NA          1996 R3SHLT        W3 Self-re… "1.E… yes          ifels…     1
##  6 hrs   Rand    covariates SRheal… rHlthSR      4 NA          1998 R4SHLT        W4 Self-re… "1.E… yes          ifels…     1
##  7 hrs   Rand    covariates SRheal… rHlthSR      5 NA          2000 R5SHLT        W5 Self-re… "1.E… yes          ifels…     1
##  8 hrs   Rand    covariates SRheal… rHlthSR      6 NA          2002 R6SHLT        W6 Self-re… "1.E… yes          ifels…     1
##  9 hrs   Rand    covariates SRheal… rHlthSR      7 NA          2004 R7SHLT        W7 Self-re… "1.E… yes          ifels…     1
## 10 hrs   Rand    covariates SRheal… rHlthSR      8 NA          2006 R8SHLT        W8 Self-re… "1.E… yes          ifels…     1
## # ℹ 173 more rows
## # ℹ 3 more variables: maxi <dbl>, comp_rule <chr>, long_rule <chr>
…
lasa_codebook <- (codebook %>% filter(study == "LASA"))$codebook[[1]] %>%
  mutate(orig_itemname = orig_itemname)
lasa_codebook

## # A tibble: 105 × 17
##    study dataset  category   name  itemname wave  wave_letter  year orig_itemname description scale reverse_code recode  mini
##    <chr> <chr>    <chr>      <chr> <chr>    <lgl> <chr>       <dbl> <chr>         <chr>       <chr> <chr>        <chr>  <dbl>
##  1 LASA  LASAz004 covariates educ… eduYears NA    b            1992 aedu          education … "no … <NA>         ifels…    NA
##  2 LASA  LASAz004 covariates gend… sex      NA    b            1992 sex           sex respon… "mal… <NA>         ifels…    NA
##  3 LASA  LASAb036 covariates SRhe… SRhealth NA    b            1992 bsubhea1      Self-perce… "na,… yes          ifels…     1
##  4 LASA  LASAc036 covariates SRhe… SRhealth NA    c            1995 csubhea1      Self-perce… "na,… yes          ifels…     1
##  5 LASA  LASAd036 covariates SRhe… SRhealth NA    d            1998 dsubhea1      Self-perce… "na,… yes          ifels…     1
##  6 LASA  LASAe036 covariates SRhe… SRhealth NA    e            2001 esubhea1      Self-perce… "na,… yes          ifels…     1
##  7 LASA  LASAf036 covariates SRhe… SRhealth NA    f            2005 fsubhea1      Self-perce… "na,… yes          ifels…     1
##  8 LASA  LASAg036 covariates SRhe… SRhealth NA    g            2008 gsubhea1      Self-perce… "na,… yes          ifels…     1
##  9 LASA  LASAh036 covariates SRhe… SRhealth NA    h            2011 hsubhea1      Self-perce… "na,… yes          ifels…     1
## 10 LASA  LASAi036 covariates SRhe… SRhealth NA    i            2015 isubhea1      Self-perce… "na,… yes          ifels…     1
## # ℹ 95 more rows
## # ℹ 3 more variables: maxi <dbl>, comp_rule <chr>, long_rule <chr>
…
2.10 Origins of the Variances of the Oldest-Old: Octogenarian Twins (OCTO-TWIN)

The Origins of the Variances of the Oldest-Old: Octogenarian Twins (OCTO-TWIN) study was a longitudinal study of twin-pairs in Sweden born before 1913 that began in 1991. Data are available, by application, from the study leaders at the Karolinska Institute.

Twin-pairs from the Swedish Twin registry who were born before 1913 were invited to be part of the study in 1991. Additional follow-ups were collected in 1993, 1995, 1997, and 1999 on all surviving twins. The initial sample included 351 twin pairs (149 monozygotic and 202 same-sex dizygotic pairs). More information on the study can be found at https://webcache.googleusercontent.com/search?q=cache:HcheF2l9zc0J:https://psy.gu.se/digitalAssets/1469/1469717_octo-twin-brief-presentation.pdf+&cd=1&hl=en&ct=clnk&gl=us&client=safari.

Sample sizes vary by year, from 222 (wave 5; 43 pairs) to 702 (wave 1; 351 pairs), which yields 99% power to detect a correlation effect size of ~.19, two-tailed at alpha .05.

2.10.1 Load Data

(octotwin_codebook <- (codebook %>% filter(study == "OCTO-TWIN"))$codebook[[1]] %>%
  mutate(orig_itemname = str_to_lower(orig_itemname)))

## # A tibble: 99 × 16
##    study     dataset    category   name  itemname  wave  year orig_itemname description scale reverse_code recode  mini  maxi
##    <chr>     <chr>      <chr>      <chr> <chr>    <dbl> <dbl> <chr>         <chr>       <chr> <chr>        <chr>  <dbl> <dbl>
##  1 octo-twin OCTO_Wave1 covariates educ… eduYears     1  1991 v130          years scho… "int… <NA>         ifels…    NA    NA
##  2 octo-twin OCTO_Wave1 covariates gend… sex          1  1991 sex           Respondent…  <NA> <NA>         ifels…    NA    NA
##  3 octo-twin OCTO_Wave1 covariates gend… sex2         1  1991 medrec_sex    Sex          <NA> <NA>         ifels…    NA    NA
##  4 octo-twin OCTO_Wave2 covariates gend… sex2         2  1993 medrec_sex    Sex          <NA> <NA>         ifels…    NA    NA
##  5 octo-twin OCTO_Wave3 covariates gend… sex2         3  1995 medrec_sex    Sex          <NA> <NA>         ifels…    NA    NA
##  6 octo-twin OCTO_Wave4 covariates gend… sex2         4  1997 medrec_sex    Sex          <NA> <NA>         ifels…    NA    NA
##  7 octo-twin OCTO_Wave5 covariates gend… sex2         5  2000 medrec_sex    Sex          <NA> <NA>         ifels…    NA    NA
##  8 octo-twin OCTO_Wave1 covariates SRhe… overall…     1  1991 v201          overall he… "Nam… yes          ifels…     1     3
##  9 octo-twin OCTO_Wave2 covariates SRhe… overall…     2  1993 b201          overall he… "Nam… yes          ifels…     1     3
## 10 octo-twin OCTO_Wave3 covariates SRhe… overall…     3  1995 c201          overall he… "Nam… yes          ifels…     1     3
## # ℹ 89 more rows
## # ℹ 2 more variables: comp_rule <chr>, long_rule <chr>
…
satsa_codebook <- (codebook %>% filter(study == "SATSA"))$codebook[[1]] %>%
  mutate_at(vars(orig_itemname), str_to_upper)
satsa_codebook

## # A tibble: 302 × 18
##    study dataset    category   name   itemname wave  wave_letter  year item_stem orig_itemname description scale reverse_code
##    <chr> <chr>      <chr>      <chr>  <chr>    <lgl> <chr>       <dbl> <chr>     <chr>         <chr>       <chr> <chr>       
##  1 satsa SATSA_Q1   covariates educa… educati… NA    <NA>         1984 EDUC      EDUC          Education   "1\t… <NA>        
##  2 satsa SATSA_Q1   covariates gender sex      NA    <NA>         1984 <NA>      SEX           SEX         "1 =… <NA>        
##  3 satsa SATSA_IPT1 covariates gender sex      NA    <NA>         1985 <NA>      SEX           SEX         "1 =… <NA>        
##  4 satsa SATSA_Q2   covariates gender sex      NA    <NA>         1987 <NA>      SEX           SEX         "1 =… <NA>        
##  5 satsa SATSA_IPT2 covariates gender sex      NA    <NA>         1989 <NA>      SEX           SEX         "1 =… <NA>        
##  6 satsa SATSA_Q3   covariates gender sex      NA    <NA>         1990 <NA>      SEX           SEX         "1 =… <NA>        
##  7 satsa SATSA_IPT3 covariates gender sex      NA    <NA>         1992 <NA>      SEX           SEX         "1 =… <NA>        
##  8 satsa SATSA_Q4   covariates gender sex      NA    <NA>         1993 <NA>      SEX           SEX         "1 =… <NA>        
##  9 satsa SATSA_IPT4 covariates gender sex      NA    <NA>         1995 <NA>      SEX           SEX         "1 =… <NA>        
## 10 satsa SATSA_IPT5 covariates gender sex      NA    <NA>         1999 <NA>      SEX           SEX         "1 =… <NA>        
## # ℹ 292 more rows
## # ℹ 5 more variables: recode <chr>, mini <dbl>, maxi <dbl>, comp_rule <chr>, long_rule <chr>
…
## [1] "~/Documents/projects/data synthesis/crystallized/data/clean/base-i_cleaned.RData"
## [1] "~/Documents/projects/data synthesis/crystallized/data/clean/eas_cleaned.RData"
## [1] "~/Documents/projects/data synthesis/crystallized/data/clean/gsoep_cleaned.RData"
## [1] "~/Documents/projects/data synthesis/crystallized/data/clean/hilda_cleaned.RData"
## [1] "~/Documents/projects/data synthesis/crystallized/data/clean/hrs_cleaned.RData"
## [1] "~/Documents/projects/data synthesis/crystallized/data/clean/lasa_cleaned.RData"
## [1] "~/Documents/projects/data synthesis/crystallized/data/clean/map_cleaned.RData"
## [1] "~/Documents/projects/data synthesis/crystallized/data/clean/mars_cleaned.RData"
## [1] "~/Documents/projects/data synthesis/crystallized/data/clean/octo-twin_cleaned.RData"
## [1] "~/Documents/projects/data synthesis/crystallized/data/clean/ros_cleaned.RData"
## [1] "~/Documents/projects/data synthesis/crystallized/data/clean/satsa_cleaned.RData"

ipd3_meta_data

## # A tibble: 119,597 × 13
##    study Trait p_value p_year SID   Outcome      o_value o_year education gender SRhealth yearBrth   age
##    <chr> <chr>   <dbl>  <dbl> <chr> <chr>          <dbl>  <dbl>     <dbl>  <dbl>    <dbl>    <dbl> <dbl>
##  1 BASE  E        3.83   1990 10004 crystallized   2.17    2000        17      0        4     1918    72
##  2 BASE  E        3.83   1990 10010 crystallized   3.08    1995        11      0        2     1911    79
##  3 BASE  E        2.5    1990 10033 crystallized   0.909   1997         8      1        5     1910    80
##  4 BASE  E        3      1990 10034 crystallized   6.54    1995        10      0        5     1914    76
##  5 BASE  E        2.5    1990 10111 crystallized   6.54    1995        13      1        4     1901    89
##  6 BASE  E        3.17   1990 10115 crystallized  10       1995        11      0        2     1918    72
##  7 BASE  E        3      1990 10116 crystallized   3.85    1995        10      0        4     1917    73
##  8 BASE  E        3      1990 10145 crystallized   6.36    1997        10      1        5     1897    93
##  9 BASE  E        3.33   1990 10175 crystallized   2.31    1995         8      1        3     1911    79
## 10 BASE  E        3.33   1990 10188 crystallized   5.77    2004        10      1        2     1903    87
## # ℹ 119,587 more rows
…
