Chapter 6 Method 3: One-Stage Individual Participant Analyses Reported Together | A Taxonomy of Data Synthesis: A Tutorial
…
ipd4_reg_data <- tibble(
  study = studies[!studies %in% c("CNLSY", "SLS")]
  , data = map(str_to_lower(study), ~loadRData(., "combined"))
  ) %>% mutate(
    data = map(data, ~(.) %>% 
                 ungroup() %>% 
                 mutate(SID = as.character(SID)))
    , study = mapvalues(study, studies, studies_long)
  ) %>%
  unnest(data) %>%
  mutate(age = ifelse(is.na(age), p_year - yearBrth, age))

ipd4_reg_data

## # A tibble: 119,597 × 13
##    study Trait p_value p_year SID   Outcome      o_value o_year education gender SRhealth yearBrth   age
##    <chr> <chr>   <dbl>  <dbl> <chr> <chr>          <dbl>  <dbl>     <dbl>  <dbl>    <dbl>    <dbl> <dbl>
##  1 BASE  E        3.83   1990 10004 crystallized   2.17    2000        17      0        4     1918    72
##  2 BASE  E        3.83   1990 10010 crystallized   3.08    1995        11      0        2     1911    79
##  3 BASE  E        2.5    1990 10033 crystallized   0.909   1997         8      1        5     1910    80
##  4 BASE  E        3      1990 10034 crystallized   6.54    1995        10      0        5     1914    76
##  5 BASE  E        2.5    1990 10111 crystallized   6.54    1995        13      1        4     1901    89
##  6 BASE  E        3.17   1990 10115 crystallized  10       1995        11      0        2     1918    72
##  7 BASE  E        3      1990 10116 crystallized   3.85    1995        10      0        4     1917    73
##  8 BASE  E        3      1990 10145 crystallized   6.36    1997        10      1        5     1897    93
##  9 BASE  E        3.33   1990 10175 crystallized   2.31    1995         8      1        3     1911    79
## 10 BASE  E        3.33   1990 10188 crystallized   5.77    2004        10      1        2     1903    87
## # ℹ 119,587 more rows

6.2.1 Harmonize Data

ipd4_reg_data <- ipd4_reg_data %>%
  group_by(study, Trait, Outcome) %>%
  mutate_at(vars(p_value, o_value, SRhealth), 
            ~((. - min(., na.rm = T))/(max(., na.rm = T) - min(., na.rm = T))*10)) %>%
  mutate(gender = factor(gender, levels = c(0,1), labels = c("Male", "Female")),
         education = education - 12,
         age = age - mean(age, na.rm = T))
ipd4_reg_data

## # A tibble: 119,597 × 13
## # Groups:   study, Trait, Outcome [40]
##    study Trait p_value p_year SID   Outcome      o_value o_year education gender SRhealth yearBrth    age
##    <chr> <chr>   <dbl>  <dbl> <chr> <chr>          <dbl>  <dbl>     <dbl> <fct>     <dbl>    <dbl>  <dbl>
##  1 BASE  E         7     1990 10004 crystallized   2.17    2000         5 Male        7.5     1918 -6.23 
##  2 BASE  E         7     1990 10010 crystallized   3.08    1995        -1 Male        2.5     1911  0.766
##  3 BASE  E         3     1990 10033 crystallized   0.909   1997        -4 Female     10       1910  1.77 
##  4 BASE  E         4.5   1990 10034 crystallized   6.54    1995        -2 Male       10       1914 -2.23 
##  5 BASE  E         3     1990 10111 crystallized   6.54    1995         1 Female      7.5     1901 10.8  
##  6 BASE  E         5     1990 10115 crystallized  10       1995        -1 Male        2.5     1918 -6.23 
##  7 BASE  E         4.5   1990 10116 crystallized   3.85    1995        -2 Male        7.5     1917 -5.23 
##  8 BASE  E         4.5   1990 10145 crystallized   6.36    1997        -2 Female     10       1897 14.8  
##  9 BASE  E         5.5   1990 10175 crystallized   2.31    1995        -4 Female      5       1911  0.766
## 10 BASE  E         5.5   1990 10188 crystallized   5.77    2004        -2 Female      2.5     1903  8.77 
## # ℹ 119,587 more rows

6.2.2 Save Data Files

save_fun <- function(d, trait, outcome, study){
  save(d, file = sprintf("%s/data/two_stage/%s_%s_%s.RData", local_path, trait, outcome, study))
}

ipd4_reg_data %>%
  group_by(study, Trait, Outcome) %>%
  nest() %>%
  ungroup() %>%
  mutate(data = pmap(list(data, Trait, Outcome, study), save_fun))

## # A tibble: 40 × 4
##    study Trait Outcome      data  
##    <chr> <chr> <chr>        <list>
##  1 BASE  E     crystallized <NULL>
##  2 BASE  N     crystallized <NULL>
##  3 BASE  O     crystallized <NULL>
##  4 EAS   A     crystallized <NULL>
##  5 EAS   C     crystallized <NULL>
##  6 EAS   E     crystallized <NULL>
##  7 EAS   N     crystallized <NULL>
##  8 EAS   O     crystallized <NULL>
##  9 GSOEP A     crystallized <NULL>
## 10 GSOEP C     crystallized <NULL>
## # ℹ 30 more rows
…
This results in a nested data frame, with columns:

studyEff = standardized study-specific effects from stage 1 regressions

nested_ipd4_ca

## # A tibble: 4,120 × 11
##    type        Outcome      Trait Moderator Covariate study term         estimate conf.low conf.high     n
##    <chr>       <chr>        <chr> <chr>     <chr>     <chr> <chr>           <dbl>    <dbl>     <dbl> <dbl>
##  1 Frequentist crystallized A     age       all       EAS   (Intercept)   5.67      4.99     6.35      788
##  2 Frequentist crystallized A     age       all       EAS   p_value       0.0812   -0.0121   0.174     788
##  3 Frequentist crystallized A     age       all       EAS   age           0.0136   -0.110    0.138     788
##  4 Frequentist crystallized A     age       all       EAS   genderFemale -0.445    -0.774   -0.116     788
##  5 Frequentist crystallized A     age       all       EAS   education     0.233     0.185    0.281     788
##  6 Frequentist crystallized A     age       all       EAS   p_value:age  -0.0103   -0.0276   0.00702   788
##  7 Frequentist crystallized A     age       all       GSOEP (Intercept)   8.08      7.67     8.48      647
##  8 Frequentist crystallized A     age       all       GSOEP p_value       0.0196   -0.0343   0.0736    647
##  9 Frequentist crystallized A     age       all       GSOEP age           0.00909  -0.0209   0.0391    647
## 10 Frequentist crystallized A     age       all       GSOEP genderFemale  0.0439   -0.140    0.227     647
## # ℹ 4,110 more rows
…
  mutate(sig = ifelse(sign(conf.low) == sign(conf.high), "sig", "ns")) %>% # significance marker
  mutate_at(vars(estimate:conf.high), 
            ~ifelse(abs(.) < .01, sprintf("%.3f", .), sprintf("%.2f",.))) %>%
  mutate(est = sprintf("%s<br>[%s, %s]", estimate, conf.low, conf.high),
         est = ifelse(sig == "sig", sprintf("<strong>%s</strong>", est), est),
         study = mapvalues(study, c("BASE-I", "OCTO-TWIN"), c("BASE", "OCTO-Twin")),
         study = factor(study, c(studies_long, "Meta-Analytic")),
         Outcome = factor(Outcome, outcomes$short_name, outcomes$long_name)) %>%
  select(type:Covariate, term, study, est) %>%
  pivot_wider(names_from = "Trait", values_from = "est") %>%
  select(type:study, E, A, C, N, O) %>%
  arrange(type, Outcome, Moderator, Covariate, study)
ipd4_res_tab

## # A tibble: 242 × 11
##    type     Outcome              Moderator Covariate term        study     E                         A      C     N     O    
##    <chr>    <fct>                <chr>     <chr>     <chr>       <fct>     <chr>                     <chr>  <chr> <chr> <chr>
##  1 Bayesian Crystallized Ability age       all       p_value:age BASE      0.002<br>[-0.03, 0.04]    <NA>   <NA>  0.01… -0.0…
##  2 Bayesian Crystallized Ability age       all       p_value:age EAS       -0.005<br>[-0.02, 0.01]   -0.01… <str… <str… -0.0…
##  3 Bayesian Crystallized Ability age       all       p_value:age GSOEP     -0.000<br>[-0.004, 0.003] -0.00… 0.00… 0.00… -0.0…
##  4 Bayesian Crystallized Ability age       all       p_value:age HILDA     0.001<br>[-0.000, 0.003]  0.000… <str… <str… <str…
##  5 Bayesian Crystallized Ability age       all       p_value:age HRS       -0.002<br>[-0.005, 0.001] -0.00… <str… 0.00… <str…
##  6 Bayesian Crystallized Ability age       all       p_value:age LASA      <NA>                      <NA>   <NA>  -0.0… <NA> 
##  7 Bayesian Crystallized Ability age       all       p_value:age MAP       -0.002<br>[-0.009, 0.005] <NA>   0.00… -0.0… <NA> 
##  8 Bayesian Crystallized Ability age       all       p_value:age MARS      <NA>                      <NA>   <NA>  -0.0… <NA> 
##  9 Bayesian Crystallized Ability age       all       p_value:age OCTO-Twin -0.01<br>[-0.06, 0.03]    <NA>   <NA>  0.03… <NA> 
## 10 Bayesian Crystallized Ability age       all       p_value:age ROS       0.004<br>[-0.006, 0.01]   <stro… 0.00… <str… <str…
## # ℹ 232 more rows
…
