Chapter 4 Method 2: Pooled One Stage Models with Study-Specific Effects | A Taxonomy of Data Synthesis: A Tutorial
…
ipd_reg_data <- tibble(
  study = studies[!studies %in% c("CNLSY", "SLS")]
  , data = map(str_to_lower(study), ~loadRData(., "combined"))
  ) %>% mutate(
    data = map(data, ~(.) %>% 
                 ungroup() %>% 
                 mutate(SID = as.character(SID)))
    , study = mapvalues(study, studies, studies_long)
  ) %>%
  unnest(data) %>%
  mutate(age = ifelse(is.na(age), p_year - yearBrth, age))

ipd_reg_data

## # A tibble: 119,597 × 13
##    study Trait p_value p_year SID   Outcome      o_value o_year education gender SRhealth yearBrth   age
##    <chr> <chr>   <dbl>  <dbl> <chr> <chr>          <dbl>  <dbl>     <dbl>  <dbl>    <dbl>    <dbl> <dbl>
##  1 BASE  E        3.83   1990 10004 crystallized   2.17    2000        17      0        4     1918    72
##  2 BASE  E        3.83   1990 10010 crystallized   3.08    1995        11      0        2     1911    79
##  3 BASE  E        2.5    1990 10033 crystallized   0.909   1997         8      1        5     1910    80
##  4 BASE  E        3      1990 10034 crystallized   6.54    1995        10      0        5     1914    76
##  5 BASE  E        2.5    1990 10111 crystallized   6.54    1995        13      1        4     1901    89
##  6 BASE  E        3.17   1990 10115 crystallized  10       1995        11      0        2     1918    72
##  7 BASE  E        3      1990 10116 crystallized   3.85    1995        10      0        4     1917    73
##  8 BASE  E        3      1990 10145 crystallized   6.36    1997        10      1        5     1897    93
##  9 BASE  E        3.33   1990 10175 crystallized   2.31    1995         8      1        3     1911    79
## 10 BASE  E        3.33   1990 10188 crystallized   5.77    2004        10      1        2     1903    87
## # ℹ 119,587 more rows
…
  mutate(est = sprintf("%s<br>[%s, %s]", estimate, conf.low, conf.high),
         est = ifelse(sig == "sig", sprintf("<strong>%s</strong>", est), est),
  # mutate(est = sprintf("%s [%s, %s]", estimate, conf.low, conf.high),
  #        est = ifelse(sig == "sig", sprintf("\\textbf{%s}", est), est),
         study = factor(study, levels = c(studies_long, "Overall"),
                        labels = c(studies_long, "Overall"))) %>%
  # reshaping: remove extra columns, arrange by key variables, and make wide
  select(type, Outcome, Trait, Moderator, Covariate, study, term2, est) %>%
  arrange(type, Outcome, Trait, Moderator, Covariate, study, term2) %>%
  pivot_wider(names_from = "Trait", values_from = "est")
  # filter(row_number() %in% c(9, 10))
  # spread(Trait, est)
ipd2a_reg_tab

## # A tibble: 242 × 11
##    type     Outcome              Moderator Covariate  study   term2       E         A         C         N         O        
##    <chr>    <fct>                <fct>     <fct>      <fct>   <fct>       <list>    <list>    <list>    <list>    <list>   
##  1 Bayesian Crystallized Ability None      Unadjusted EAS     Personality <chr [1]> <chr [1]> <chr [1]> <chr [1]> <chr [1]>
##  2 Bayesian Crystallized Ability None      Unadjusted GSOEP   Personality <chr [1]> <chr [1]> <chr [1]> <chr [1]> <chr [1]>
##  3 Bayesian Crystallized Ability None      Unadjusted HILDA   Personality <chr [1]> <chr [1]> <chr [1]> <chr [1]> <chr [1]>
##  4 Bayesian Crystallized Ability None      Unadjusted HRS     Personality <chr [1]> <chr [1]> <chr [1]> <chr [1]> <chr [1]>
##  5 Bayesian Crystallized Ability None      Unadjusted MAP     Personality <chr [1]> <NULL>    <chr [1]> <chr [1]> <NULL>   
##  6 Bayesian Crystallized Ability None      Unadjusted ROS     Personality <chr [1]> <chr [1]> <chr [1]> <chr [1]> <chr [1]>
##  7 Bayesian Crystallized Ability None      Unadjusted SATSA   Personality <chr [1]> <chr [1]> <chr [1]> <chr [1]> <chr [1]>
##  8 Bayesian Crystallized Ability None      Unadjusted Overall Personality <chr [1]> <chr [1]> <chr [1]> <chr [1]> <chr [1]>
##  9 Bayesian Crystallized Ability None      Unadjusted <NA>    Personality <chr [2]> <NULL>    <NULL>    <chr [2]> <chr [1]>
## 10 Bayesian Crystallized Ability None      Age        EAS     Personality <chr [1]> <chr [1]> <chr [1]> <chr [1]> <chr [1]>
## # ℹ 232 more rows
…
  # combine the effects, bold significance, factor and label study-specfic effects 
  mutate(est = sprintf("%s<br>[%s, %s]", estimate, conf.low, conf.high),
         est = ifelse(sig == "sig", sprintf("<strong>%s</strong>", est), est),
  # mutate(est = sprintf("%s [%s, %s]", estimate, conf.low, conf.high),
  #        est = ifelse(sig == "sig", sprintf("\\textbf{%s}", est), est),
         study = mapvalues(study, c("BASE-I", "OCTO-TWIN"), c("BASE", "OCTO-Twin")),
         study = factor(study, levels = c(studies_long, "Overall"),
                        labels = c(studies_long, "Overall"))) %>%
  # reshaping: remove extra columns, arrange by key variables, and make wide
  select(type, Outcome, Trait, Moderator, Covariate, study, term, est) %>%
  arrange(type, Outcome, Trait, Moderator, Covariate, study, term, est) %>%
  pivot_wider(names_from = "Trait", values_from = "est") 
ipd2b_reg_tab

## # A tibble: 1,824 × 11
##    type     Outcome              Moderator Covariate  study     term        E                         A     C     N     O    
##    <chr>    <fct>                <fct>     <fct>      <fct>     <fct>       <chr>                     <chr> <chr> <chr> <chr>
##  1 Bayesian Crystallized Ability None      Unadjusted BASE      Personality 0.05<br>[-0.04, 0.16]     <NA>  <NA>  <str… <str…
##  2 Bayesian Crystallized Ability None      Unadjusted EAS       Personality <strong>0.10<br>[0.04, 0… 0.02… 0.02… <str… <str…
##  3 Bayesian Crystallized Ability None      Unadjusted GSOEP     Personality <strong>0.07<br>[0.03, 0… -0.0… -0.0… <str… <str…
##  4 Bayesian Crystallized Ability None      Unadjusted HILDA     Personality 0.01<br>[-0.01, 0.04]     <str… <str… <str… <str…
##  5 Bayesian Crystallized Ability None      Unadjusted HRS       Personality 0.001<br>[-0.02, 0.03]    <str… <str… <str… <str…
##  6 Bayesian Crystallized Ability None      Unadjusted MAP       Personality 0.04<br>[-0.01, 0.09]     <NA>  <str… <str… <NA> 
##  7 Bayesian Crystallized Ability None      Unadjusted OCTO-Twin Personality 0.05<br>[-0.02, 0.11]     <NA>  <NA>  <str… <NA> 
##  8 Bayesian Crystallized Ability None      Unadjusted ROS       Personality 0.02<br>[-0.05, 0.07]     <str… <str… <str… <str…
##  9 Bayesian Crystallized Ability None      Unadjusted SATSA     Personality 0.04<br>[-0.02, 0.12]     <str… <str… <str… <str…
## 10 Bayesian Crystallized Ability None      Unadjusted Overall   Personality <strong>0.04<br>[0.00, 0… 0.00… 0.04… <str… <str…
## # ℹ 1,814 more rows
…
