Chapter 5 Method 3: Two-Stage Individual Participant Meta-Analysis | A Taxonomy of Data Synthesis: A Tutorial
…
## [1] "~/Documents/projects/data synthesis/crystallized/data/clean/base-i_cleaned.RData"
## [1] "~/Documents/projects/data synthesis/crystallized/data/clean/eas_cleaned.RData"
## [1] "~/Documents/projects/data synthesis/crystallized/data/clean/gsoep_cleaned.RData"
## [1] "~/Documents/projects/data synthesis/crystallized/data/clean/hilda_cleaned.RData"
## [1] "~/Documents/projects/data synthesis/crystallized/data/clean/hrs_cleaned.RData"
## [1] "~/Documents/projects/data synthesis/crystallized/data/clean/lasa_cleaned.RData"
## [1] "~/Documents/projects/data synthesis/crystallized/data/clean/map_cleaned.RData"
## [1] "~/Documents/projects/data synthesis/crystallized/data/clean/mars_cleaned.RData"
## [1] "~/Documents/projects/data synthesis/crystallized/data/clean/octo-twin_cleaned.RData"
## [1] "~/Documents/projects/data synthesis/crystallized/data/clean/ros_cleaned.RData"
## [1] "~/Documents/projects/data synthesis/crystallized/data/clean/satsa_cleaned.RData"

ipd3_meta_data

## # A tibble: 119,597 × 13
##    study Trait p_value p_year SID   Outcome      o_value o_year education gender SRhealth yearBrth   age
##    <chr> <chr>   <dbl>  <dbl> <chr> <chr>          <dbl>  <dbl>     <dbl>  <dbl>    <dbl>    <dbl> <dbl>
##  1 BASE  E        3.83   1990 10004 crystallized   2.17    2000        17      0        4     1918    72
##  2 BASE  E        3.83   1990 10010 crystallized   3.08    1995        11      0        2     1911    79
##  3 BASE  E        2.5    1990 10033 crystallized   0.909   1997         8      1        5     1910    80
##  4 BASE  E        3      1990 10034 crystallized   6.54    1995        10      0        5     1914    76
##  5 BASE  E        2.5    1990 10111 crystallized   6.54    1995        13      1        4     1901    89
##  6 BASE  E        3.17   1990 10115 crystallized  10       1995        11      0        2     1918    72
##  7 BASE  E        3      1990 10116 crystallized   3.85    1995        10      0        4     1917    73
##  8 BASE  E        3      1990 10145 crystallized   6.36    1997        10      1        5     1897    93
##  9 BASE  E        3.33   1990 10175 crystallized   2.31    1995         8      1        3     1911    79
## 10 BASE  E        3.33   1990 10188 crystallized   5.77    2004        10      1        2     1903    87
## # ℹ 119,587 more rows
…
0.00

5.2.2 Harmonize Data

ipd3_meta_data <- ipd3_meta_data %>%
  group_by(study, Trait, Outcome) %>%
  mutate_at(vars(p_value, o_value, SRhealth), 
            ~((. - min(., na.rm = T))/(max(., na.rm = T) - min(., na.rm = T))*10)) %>%
  mutate(gender = factor(gender, levels = c(0,1), labels = c("Male", "Female")),
         education = education - 12,
         age = age - mean(age, na.rm = T)) %>% 
  ungroup()
ipd3_meta_data

## # A tibble: 119,597 × 13
##    study Trait p_value p_year SID   Outcome      o_value o_year education gender SRhealth yearBrth    age
##    <chr> <chr>   <dbl>  <dbl> <chr> <chr>          <dbl>  <dbl>     <dbl> <fct>     <dbl>    <dbl>  <dbl>
##  1 BASE  E         7     1990 10004 crystallized   2.17    2000         5 Male        7.5     1918 -6.23 
##  2 BASE  E         7     1990 10010 crystallized   3.08    1995        -1 Male        2.5     1911  0.766
##  3 BASE  E         3     1990 10033 crystallized   0.909   1997        -4 Female     10       1910  1.77 
##  4 BASE  E         4.5   1990 10034 crystallized   6.54    1995        -2 Male       10       1914 -2.23 
##  5 BASE  E         3     1990 10111 crystallized   6.54    1995         1 Female      7.5     1901 10.8  
##  6 BASE  E         5     1990 10115 crystallized  10       1995        -1 Male        2.5     1918 -6.23 
##  7 BASE  E         4.5   1990 10116 crystallized   3.85    1995        -2 Male        7.5     1917 -5.23 
##  8 BASE  E         4.5   1990 10145 crystallized   6.36    1997        -2 Female     10       1897 14.8  
##  9 BASE  E         5.5   1990 10175 crystallized   2.31    1995        -4 Female      5       1911  0.766
## 10 BASE  E         5.5   1990 10188 crystallized   5.77    2004        -2 Female      2.5     1903  8.77 
## # ℹ 119,587 more rows

5.2.3 Save Data Files

save_fun <- function(d, trait, outcome, study){
  save(d, file = sprintf("%s/data/two_stage/%s_%s_%s.RData", local_path, trait, outcome, study))
}

ipd3_meta_data %>%
  group_by(study, Trait, Outcome) %>%
  nest() %>%
  ungroup() %>%
  mutate(data = pmap(list(data, Trait, Outcome, study), save_fun))

## # A tibble: 40 × 4
##    study Trait Outcome      data  
##    <chr> <chr> <chr>        <list>
##  1 BASE  E     crystallized <NULL>
##  2 BASE  N     crystallized <NULL>
##  3 BASE  O     crystallized <NULL>
##  4 EAS   A     crystallized <NULL>
##  5 EAS   C     crystallized <NULL>
##  6 EAS   E     crystallized <NULL>
##  7 EAS   N     crystallized <NULL>
##  8 EAS   O     crystallized <NULL>
##  9 GSOEP A     crystallized <NULL>
## 10 GSOEP C     crystallized <NULL>
## # ℹ 30 more rows
…
nested_ipd3_meta <- tibble(type = c("Frequentist", "Bayesian")) %>%
  mutate(file = map(type, ~list.files(sprintf("%s/results/3_ipd_meta/%s/studyEffects", local_path, .)))) %>%
  unnest(file) %>%
  separate(file, c("Outcome", "Trait", "Moderator", "Covariate", "study"), sep = "_", remove = F) %>% 
  filter(!is.na(study)) %>%
  # filter(Trait == "N") %>%
  ## read in the files
  mutate(study = str_remove(study, ".RData"),
         data = map2(file, type, ~loadRData(.x, .y, "es", "studyEffects"))) %>%
  select(-file) %>%
  ## unnest effect sizes
  unnest(data)
nested_ipd3_meta

## # A tibble: 1,712 × 10
##    type        Outcome      Trait Moderator Covariate study term         Estimate      SEI    ni
##    <chr>       <chr>        <chr> <chr>     <chr>     <chr> <chr>           <dbl>    <dbl> <int>
##  1 Frequentist crystallized A     age       all       EAS   (Intercept)  5.67     0.344      788
##  2 Frequentist crystallized A     age       all       EAS   p_value:age -0.0103   0.00881    788
##  3 Frequentist crystallized A     age       all       GSOEP (Intercept)  8.08     0.206      647
##  4 Frequentist crystallized A     age       all       GSOEP p_value:age -0.00168  0.00195    647
##  5 Frequentist crystallized A     age       all       HILDA (Intercept)  5.13     0.110     7755
##  6 Frequentist crystallized A     age       all       HILDA p_value:age  0.000451 0.000817  7755
##  7 Frequentist crystallized A     age       all       HRS   (Intercept)  5.14     0.112     8432
##  8 Frequentist crystallized A     age       all       HRS   p_value:age -0.00142  0.00185   8432
##  9 Frequentist crystallized A     age       all       ROS   (Intercept)  7.02     0.284     1372
## 10 Frequentist crystallized A     age       all       ROS   p_value:age  0.0136   0.00651   1372
## # ℹ 1,702 more rows
…
This results in a nested data frame, with columns:

studyEff = standardized study-specific effects from stage 1 regressions

metaEff = standardized meta-analytic effect from stage 2 meta-analysis

metaHet = Measures of cross-study heterogeneity

nested_ipd3_meta

## # A tibble: 410 × 8
##    type        Outcome      Trait Covariate studyEff          Moderator metaEff      metaHet         
##    <chr>       <chr>        <chr> <chr>     <list>            <chr>     <list>       <list>          
##  1 Frequentist crystallized A     age       <tibble [18 × 6]> baseAge   <df [2 × 6]> <tibble [1 × 6]>
##  2 Frequentist crystallized A     age       <tibble [18 × 6]> baseYear  <df [2 × 6]> <tibble [1 × 6]>
##  3 Frequentist crystallized A     age       <tibble [18 × 6]> continent <df [3 × 6]> <tibble [1 × 6]>
##  4 Frequentist crystallized A     age       <tibble [18 × 6]> country   <df [4 × 6]> <tibble [1 × 6]>
##  5 Frequentist crystallized A     age       <tibble [18 × 6]> predInt   <df [2 × 6]> <tibble [1 × 6]>
##  6 Frequentist crystallized A     age       <tibble [18 × 6]> scale     <df [2 × 6]> <dbl [1]>       
##  7 Frequentist crystallized A     all       <tibble [30 × 6]> baseAge   <df [2 × 6]> <tibble [1 × 6]>
##  8 Frequentist crystallized A     all       <tibble [30 × 6]> baseYear  <df [2 × 6]> <tibble [1 × 6]>
##  9 Frequentist crystallized A     all       <tibble [30 × 6]> continent <df [3 × 6]> <tibble [1 × 6]>
## 10 Frequentist crystallized A     all       <tibble [30 × 6]> country   <df [4 × 6]> <tibble [1 × 6]>
## # ℹ 400 more rows
…
First, we’ll combine study and meta-analytic results.

ipd3_meta_res <- nested_ipd3_meta %>%
  mutate(comEff = map2(studyEff, metaEff, ~(.y) %>% full_join(.x))) %>%
  select(type, Outcome, Trait, Moderator, Covariate, comEff) %>%
  unnest(comEff) %>%
  filter((Moderator == "none" & term == "p_value") | 
         (!Moderator %in% stdyModers$short_name & (grepl("p_value:", term))) |
         (Moderator %in% stdyModers$short_name & grepl("metamod", term))) %>%
  mutate(term = str_replace_all(term, "metamod", paste0("p_value:", Moderator)),
         study = mapvalues(study, c("BASE-I", "OCTO-TWIN"), c("BASE", "OCTO-Twin"))) %>%
  select(-SE)
ipd3_meta_res

## # A tibble: 1,635 × 11
##    type        Outcome      Trait Moderator Covariate term                       estimate  conf.low conf.high study         n
##    <chr>       <chr>        <chr> <chr>     <chr>     <chr>                         <dbl>     <dbl>     <dbl> <chr>     <dbl>
##  1 Frequentist crystallized A     baseAge   age       p_value:baseAge             0.00400 -0.00174    0.00973 Meta-Ana…    NA
##  2 Frequentist crystallized A     baseYear  age       p_value:baseYear            0.0102   0.00399    0.0164  Meta-Ana…    NA
##  3 Frequentist crystallized A     continent age       p_value:continentAustralia -0.0489  -0.211      0.113   Meta-Ana…    NA
##  4 Frequentist crystallized A     continent age       p_value:continentEurope    -0.177   -0.314     -0.0391  Meta-Ana…    NA
##  5 Frequentist crystallized A     country   age       p_value:countryAustralia   -0.0309  -0.0775     0.0158  Meta-Ana…    NA
##  6 Frequentist crystallized A     country   age       p_value:countryGermany     -0.0873  -0.133     -0.0418  Meta-Ana…    NA
##  7 Frequentist crystallized A     country   age       p_value:countrySweden      -0.268   -0.377     -0.158   Meta-Ana…    NA
##  8 Frequentist crystallized A     predInt   age       p_value:predInt            -0.0198  -0.0331    -0.00647 Meta-Ana…    NA
##  9 Frequentist crystallized A     baseAge   all       p_value:baseAge             0.00164 -0.00104    0.00431 Meta-Ana…    NA
## 10 Frequentist crystallized A     baseYear  all       p_value:baseYear            0.00507  0.000720   0.00943 Meta-Ana…    NA
## # ℹ 1,625 more rows
…
ipd3_res_tab <- ipd3_meta_res %>%
  mutate(sig = ifelse(sign(conf.low) == sign(conf.high), "sig", "ns")) %>% # significance marker
  mutate_at(vars(estimate:conf.high), 
            ~ifelse(abs(.) < .01, sprintf("%.3f", .), sprintf("%.2f",.))) %>%
  mutate(est = sprintf("%s<br>[%s, %s]", estimate, conf.low, conf.high),
         est = ifelse(sig == "sig", sprintf("<strong>%s</strong>", est), est),
         study = factor(study, c(studies_long, "Meta-Analytic")),
         Outcome = factor(Outcome, outcomes$short_name, outcomes$long_name)) %>%
  select(type:Covariate, term, study, est) %>%
  pivot_wider(names_from = "Trait", values_from = "est") %>%
  select(type:study, E, A, C, N, O) %>%
  arrange(type, Outcome, Moderator, Covariate, study)
ipd3_res_tab

## # A tibble: 414 × 11
##    type     Outcome              Moderator Covariate term        study     E                          A     C     N     O    
##    <chr>    <fct>                <chr>     <chr>     <chr>       <fct>     <chr>                      <chr> <chr> <chr> <chr>
##  1 Bayesian Crystallized Ability age       all       p_value:age BASE      0.002<br>[-0.04, 0.04]     <NA>  <NA>  0.01… -0.0…
##  2 Bayesian Crystallized Ability age       all       p_value:age EAS       -0.005<br>[-0.02, 0.01]    -0.0… <str… <str… -0.0…
##  3 Bayesian Crystallized Ability age       all       p_value:age GSOEP     -0.000<br>[-0.004, 0.003]  -0.0… 0.00… 0.00… -0.0…
##  4 Bayesian Crystallized Ability age       all       p_value:age HILDA     <strong>0.001<br>[0.000, … 0.00… <str… <str… <str…
##  5 Bayesian Crystallized Ability age       all       p_value:age HRS       -0.002<br>[-0.005, 0.001]  -0.0… <str… 0.00… <str…
##  6 Bayesian Crystallized Ability age       all       p_value:age LASA      <NA>                       <NA>  <NA>  -0.0… <NA> 
##  7 Bayesian Crystallized Ability age       all       p_value:age MAP       -0.002<br>[-0.009, 0.005]  <NA>  0.00… -0.0… <NA> 
##  8 Bayesian Crystallized Ability age       all       p_value:age MARS      <NA>                       <NA>  <NA>  -0.0… <NA> 
##  9 Bayesian Crystallized Ability age       all       p_value:age OCTO-Twin -0.01<br>[-0.06, 0.03]     <NA>  <NA>  0.03… <NA> 
## 10 Bayesian Crystallized Ability age       all       p_value:age ROS       0.004<br>[-0.007, 0.01]    <str… 0.00… <str… <str…
## # ℹ 404 more rows
…
