Chapter 3 Method 1: Pooled One Stage Models without Study-Specific Effects | A Taxonomy of Data Synthesis: A Tutorial
…
ipd_reg_data <- tibble(
  study = studies[!studies %in% c("CNLSY", "SLS")]
  , data = map(str_to_lower(study), ~loadRData(., "combined"))
  ) %>% mutate(
    data = map(data, ~(.) %>% 
                 ungroup() %>% 
                 mutate(SID = as.character(SID)))
    , study = mapvalues(study, studies, studies_long)
  ) %>%
  unnest(data) %>%
  mutate(age = ifelse(is.na(age), p_year - yearBrth, age))

ipd_reg_data

## # A tibble: 119,597 × 13
##    study Trait p_value p_year SID   Outcome      o_value o_year education gender SRhealth yearBrth   age
##    <chr> <chr>   <dbl>  <dbl> <chr> <chr>          <dbl>  <dbl>     <dbl>  <dbl>    <dbl>    <dbl> <dbl>
##  1 BASE  E        3.83   1990 10004 crystallized   2.17    2000        17      0        4     1918    72
##  2 BASE  E        3.83   1990 10010 crystallized   3.08    1995        11      0        2     1911    79
##  3 BASE  E        2.5    1990 10033 crystallized   0.909   1997         8      1        5     1910    80
##  4 BASE  E        3      1990 10034 crystallized   6.54    1995        10      0        5     1914    76
##  5 BASE  E        2.5    1990 10111 crystallized   6.54    1995        13      1        4     1901    89
##  6 BASE  E        3.17   1990 10115 crystallized  10       1995        11      0        2     1918    72
##  7 BASE  E        3      1990 10116 crystallized   3.85    1995        10      0        4     1917    73
##  8 BASE  E        3      1990 10145 crystallized   6.36    1997        10      1        5     1897    93
##  9 BASE  E        3.33   1990 10175 crystallized   2.31    1995         8      1        3     1911    79
## 10 BASE  E        3.33   1990 10188 crystallized   5.77    2004        10      1        2     1903    87
## # ℹ 119,587 more rows
…
ipd_reg_data

## # A tibble: 119,597 × 19
##    study continent  country scale baseAge baseYear predInt Trait p_value p_year SID   Outcome o_value o_year education gender
##    <chr> <fct>      <fct>   <fct>   <dbl>    <dbl>   <dbl> <chr>   <dbl>  <dbl> <chr> <chr>     <dbl>  <dbl>     <dbl>  <dbl>
##  1 EAS   North Ame… United… IPIP…    19.5     11.0   -2.85 A         3.7   2006 8024  crysta…    6.68   2006        10      0
##  2 EAS   North Ame… United… IPIP…    19.5     11.0   -2.85 A         3.6   2006 8265  crysta…    6.36   2011        12      0
##  3 EAS   North Ame… United… IPIP…    19.5     11.0   -2.85 A         5     2006 8296  crysta…    5.23   2006        14      0
##  4 EAS   North Ame… United… IPIP…    19.5     11.0   -2.85 A         4.4   2006 8375  crysta…    4.77   2010        12      1
##  5 EAS   North Ame… United… IPIP…    19.5     11.0   -2.85 A         3.2   2006 8597  crysta…    7.73   2009        14      0
##  6 EAS   North Ame… United… IPIP…    19.5     11.0   -2.85 A         4     2006 8622  crysta…    9.5    2011        19      1
##  7 EAS   North Ame… United… IPIP…    19.5     11.0   -2.85 A         4.2   2006 8634  crysta…    4.09   2007        12      0
##  8 EAS   North Ame… United… IPIP…    19.5     11.0   -2.85 A         4.2   2006 8637  crysta…    1.41   2006         8      1
##  9 EAS   North Ame… United… IPIP…    19.5     11.0   -2.85 A         4.5   2006 8674  crysta…    2.32   2006        14      1
## 10 EAS   North Ame… United… IPIP…    19.5     11.0   -2.85 A         4.1   2006 8675  crysta…    6.09   2006        15      0
## # ℹ 119,587 more rows
## # ℹ 3 more variables: SRhealth <dbl>, yearBrth <dbl>, age <dbl>
…
In addition, gender will be dummy coded with male as the reference group, education will be centered at 12 years of education, and age will be grand mean-centered in each study (also for each trait and outcome combination).

ipd_reg_data <- ipd_reg_data %>%
  group_by(study, Trait, Outcome) %>%
  mutate_at(vars(p_value, o_value), 
        ~((. - min(., na.rm = T))/(max(., na.rm = T) - min(., na.rm = T))*10)) %>%
  mutate(gender = factor(gender, levels = c(0,1), labels = c("Male", "Female")),
         education = education - 12, # center at 12 years of education
         age = age - mean(age, na.rm = T)) %>% # center 
  ungroup()  %>%
  select(-yearBrth)

ipd_reg_data

## # A tibble: 119,597 × 18
##    study continent  country scale baseAge baseYear predInt Trait p_value p_year SID   Outcome o_value o_year education gender
##    <chr> <fct>      <fct>   <fct>   <dbl>    <dbl>   <dbl> <chr>   <dbl>  <dbl> <chr> <chr>     <dbl>  <dbl>     <dbl> <fct> 
##  1 EAS   North Ame… United… IPIP…    19.5     11.0   -2.85 A        5.81   2006 8024  crysta…    6.68   2006        -2 Male  
##  2 EAS   North Ame… United… IPIP…    19.5     11.0   -2.85 A        5.48   2006 8265  crysta…    6.36   2011         0 Male  
##  3 EAS   North Ame… United… IPIP…    19.5     11.0   -2.85 A       10      2006 8296  crysta…    5.23   2006         2 Male  
##  4 EAS   North Ame… United… IPIP…    19.5     11.0   -2.85 A        8.06   2006 8375  crysta…    4.77   2010         0 Female
##  5 EAS   North Ame… United… IPIP…    19.5     11.0   -2.85 A        4.19   2006 8597  crysta…    7.73   2009         2 Male  
##  6 EAS   North Ame… United… IPIP…    19.5     11.0   -2.85 A        6.77   2006 8622  crysta…    9.5    2011         7 Female
##  7 EAS   North Ame… United… IPIP…    19.5     11.0   -2.85 A        7.42   2006 8634  crysta…    4.09   2007         0 Male  
##  8 EAS   North Ame… United… IPIP…    19.5     11.0   -2.85 A        7.42   2006 8637  crysta…    1.41   2006        -4 Female
##  9 EAS   North Ame… United… IPIP…    19.5     11.0   -2.85 A        8.39   2006 8674  crysta…    2.32   2006         2 Female
## 10 EAS   North Ame… United… IPIP…    19.5     11.0   -2.85 A        7.10   2006 8675  crysta…    6.09   2006         3 Male  
## # ℹ 119,587 more rows
## # ℹ 2 more variables: SRhealth <dbl>, age <dbl>
…
## load in "fixed" effects
## first get file names
nested_ipd1a_reg <- tibble(type = c("Frequentist", "Bayesian")) %>%
  mutate(file = map(type, ~list.files(sprintf("%s/results/1a_ipd_reg/%s/summary", local_path, .)))) %>%
  unnest(file) %>%
  separate(file, c("Outcome", "Trait", "Moderator", "Covariate"), sep = "_", remove = F) %>% 
  ## read in the files
  mutate(Covariate = str_remove(Covariate, ".RData"),
         fx = map2(file, type, ~loadRData(.x, .y, "fx", "summary"))) %>%
  select(-file) 
nested_ipd1a_reg

## # A tibble: 410 × 6
##    type        Outcome      Trait Moderator Covariate fx              
##    <chr>       <chr>        <chr> <chr>     <chr>     <list>          
##  1 Frequentist crystallized A     age       all       <tibble [7 × 4]>
##  2 Frequentist crystallized A     age       none      <tibble [4 × 4]>
##  3 Frequentist crystallized A     baseAge   age       <tibble [5 × 4]>
##  4 Frequentist crystallized A     baseAge   all       <tibble [8 × 4]>
##  5 Frequentist crystallized A     baseAge   education <tibble [5 × 4]>
##  6 Frequentist crystallized A     baseAge   gender    <tibble [5 × 4]>
##  7 Frequentist crystallized A     baseAge   none      <tibble [4 × 4]>
##  8 Frequentist crystallized A     baseYear  age       <tibble [5 × 4]>
##  9 Frequentist crystallized A     baseYear  all       <tibble [8 × 4]>
## 10 Frequentist crystallized A     baseYear  education <tibble [5 × 4]>
## # ℹ 400 more rows

As can be seen above, the resulting data frame is nested, but it can be easily unnested using the unnest() function.

nested_ipd1a_reg %>%
  unnest(fx)

## # A tibble: 2,993 × 9
##    type        Outcome      Trait Moderator Covariate term         estimate conf.low  conf.high
##    <chr>       <chr>        <chr> <chr>     <chr>     <chr>           <dbl>    <dbl>      <dbl>
##  1 Frequentist crystallized A     age       all       (Intercept)   5.86     5.70     6.01     
##  2 Frequentist crystallized A     age       all       p_value      -0.0456  -0.0642  -0.0269   
##  3 Frequentist crystallized A     age       all       age           0.0157   0.00510  0.0262   
##  4 Frequentist crystallized A     age       all       genderFemale  0.165    0.103    0.228    
##  5 Frequentist crystallized A     age       all       SRhealth     -0.00315 -0.0203   0.0140   
##  6 Frequentist crystallized A     age       all       education     0.260    0.249    0.270    
##  7 Frequentist crystallized A     age       all       p_value:age  -0.00136 -0.00275  0.0000259
##  8 Frequentist crystallized A     age       none      (Intercept)   7.20     7.07     7.34     
##  9 Frequentist crystallized A     age       none      p_value      -0.141   -0.158   -0.124    
## 10 Frequentist crystallized A     age       none      age           0.00858 -0.00218  0.0193   
## # ℹ 2,983 more rows
…
                       c(moders$long_term, stdyModers$long_term))) %>%
  # format values as text, combine estimates and CI's, bold significance
  mutate_at(vars(estimate, conf.low, conf.high), 
            ~ifelse(abs(.) < .01, sprintf("%.3f", .), sprintf("%.2f", .))) %>%
  mutate(est = sprintf("%s<br>[%s, %s]", estimate, conf.low, conf.high),
         est = ifelse(sig == "sig", sprintf("<strong>%s</strong>", est), est)) %>%
  # mutate(est = sprintf("%s [%s, %s]", estimate, conf.low, conf.high),
  # est = ifelse(sig == "sig", sprintf("\\textbf{%s}", est), est)) %>%
  # final reshaping, remove extra columns, arrange values, and change to wide format
  select(-estimate, -conf.low, -conf.high, -sig, -term) %>%
  arrange(type, Outcome, Trait, Moderator, Covariate) %>%
  pivot_wider(names_from = "Trait", values_from = "est") 
ipd1a_reg_tab

## # A tibble: 172 × 10
##    type     Outcome              Moderator Covariate      term2                  E                    A     C     N     O    
##    <chr>    <fct>                <fct>     <fct>          <fct>                  <chr>                <chr> <chr> <chr> <chr>
##  1 Bayesian Crystallized Ability None      None           Personality            <strong>-0.08<br>[-… <str… 0.00… -0.1… <str…
##  2 Bayesian Crystallized Ability None      Age            Personality            <strong>-0.09<br>[-… <str… 0.00… 0.09… <str…
##  3 Bayesian Crystallized Ability None      Gender         Personality            <strong>-0.08<br>[-… <str… 0.02… -0.0… <str…
##  4 Bayesian Crystallized Ability None      Education      Personality            <strong>-0.07<br>[-… <str… -0.0… -0.1… <str…
##  5 Bayesian Crystallized Ability None      Fully Adjusted Personality            <strong>-0.07<br>[-… <str… -0.0… -0.0… <str…
##  6 Bayesian Crystallized Ability Age       None           Age                    0.000<br>[-0.001, 0… -0.0… <str… 0.02… -0.0…
##  7 Bayesian Crystallized Ability Age       Fully Adjusted Age                    0.000<br>[-0.001, 0… -0.0… -0.0… -0.0… <str…
##  8 Bayesian Crystallized Ability Gender    None           Gender (Male v Female) <strong>0.07<br>[0.… <str… 0.00… -0.1… -0.0…
##  9 Bayesian Crystallized Ability Gender    Fully Adjusted Gender (Male v Female) <strong>0.05<br>[0.… <str… 0.03… -0.0… -0.0…
## 10 Bayesian Crystallized Ability Education None           Education (Years)      <strong>0.004<br>[0… -0.0… <str… 0.19… 0.00…
## # ℹ 162 more rows
…
ipd1a_fx_tab <- ipd1a_reg_tab %>%
  group_by(type, Moderator) %>%
  nest() %>%
  ungroup() %>%
  mutate(tab = pmap(list(data, type, Moderator), ipd1a_tab_fun))
ipd1a_reg_tab

## # A tibble: 172 × 10
##    type     Outcome              Moderator Covariate      term2                  E                    A     C     N     O    
##    <chr>    <fct>                <fct>     <fct>          <fct>                  <chr>                <chr> <chr> <chr> <chr>
##  1 Bayesian Crystallized Ability None      None           Personality            <strong>-0.08<br>[-… <str… 0.00… -0.1… <str…
##  2 Bayesian Crystallized Ability None      Age            Personality            <strong>-0.09<br>[-… <str… 0.00… 0.09… <str…
##  3 Bayesian Crystallized Ability None      Gender         Personality            <strong>-0.08<br>[-… <str… 0.02… -0.0… <str…
##  4 Bayesian Crystallized Ability None      Education      Personality            <strong>-0.07<br>[-… <str… -0.0… -0.1… <str…
##  5 Bayesian Crystallized Ability None      Fully Adjusted Personality            <strong>-0.07<br>[-… <str… -0.0… -0.0… <str…
##  6 Bayesian Crystallized Ability Age       None           Age                    0.000<br>[-0.001, 0… -0.0… <str… 0.02… -0.0…
##  7 Bayesian Crystallized Ability Age       Fully Adjusted Age                    0.000<br>[-0.001, 0… -0.0… -0.0… -0.0… <str…
##  8 Bayesian Crystallized Ability Gender    None           Gender (Male v Female) <strong>0.07<br>[0.… <str… 0.00… -0.1… -0.0…
##  9 Bayesian Crystallized Ability Gender    Fully Adjusted Gender (Male v Female) <strong>0.05<br>[0.… <str… 0.03… -0.0… -0.0…
## 10 Bayesian Crystallized Ability Education None           Education (Years)      <strong>0.004<br>[0… -0.0… <str… 0.19… 0.00…
## # ℹ 162 more rows
…
## load in "fixed" effects
## first get file names
nested_ipd1a_simp <- tibble(type = c("Frequentist", "Bayesian")) %>%
  mutate(file = map(type, ~list.files(sprintf("%s/results/1a_ipd_reg/%s/predicted", local_path, .)))) %>%
  unnest(file) %>%
  separate(file, c("Outcome", "Trait", "Moderator", "Covariate"), sep = "_", remove = F) %>% 
  ## read in the files
  mutate(Covariate = str_remove(Covariate, ".RData"),
         pred = map2(file, type, ~loadRData(.x, .y, "pred.fx", "predicted"))) %>%
  select(-file) 
nested_ipd1a_simp

## # A tibble: 360 × 6
##    type        Outcome      Trait Moderator Covariate pred             
##    <chr>       <chr>        <chr> <chr>     <chr>     <list>           
##  1 Frequentist crystallized A     age       all       <tibble [63 × 8]>
##  2 Frequentist crystallized A     age       none      <df [63 × 5]>    
##  3 Frequentist crystallized A     baseAge   age       <tibble [63 × 6]>
##  4 Frequentist crystallized A     baseAge   all       <tibble [63 × 9]>
##  5 Frequentist crystallized A     baseAge   education <tibble [63 × 6]>
##  6 Frequentist crystallized A     baseAge   gender    <tibble [63 × 6]>
##  7 Frequentist crystallized A     baseAge   none      <df [63 × 5]>    
##  8 Frequentist crystallized A     baseYear  age       <tibble [63 × 6]>
##  9 Frequentist crystallized A     baseYear  all       <tibble [63 × 9]>
## 10 Frequentist crystallized A     baseYear  education <tibble [63 × 6]>
## # ℹ 350 more rows
…
                          , c("scaleBFI-S", "scaleIPIP NEO", "scaleTDA-40", "countryThe Netherlands")),
         term2 = factor(term, c(moders$short_term, stdyModers$short_term),
                       c(moders$long_term, stdyModers$long_term))) %>%
  mutate_at(vars(estimate, conf.low, conf.high), 
            ~ifelse(abs(.) < .001, sprintf("%.3f", .), sprintf("%.2f", .))) %>%
  mutate(est = sprintf("%s<br>[%s, %s]", estimate, conf.low, conf.high),
         est = ifelse(sig == "sig", sprintf("<strong>%s</strong>", est), est)) %>%
  # mutate(est = sprintf("%s [%s, %s]", estimate, conf.low, conf.high),
  # est = ifelse(sig == "sig", sprintf("\\textbf{%s}", est), est)) %>%
  select(-estimate, -conf.low, -conf.high, -sig, -term) %>%
  arrange(type, Outcome, Trait, Moderator, Covariate) %>%
  pivot_wider(names_from = "Trait", values_from = "est") 
ipd1b_fixef_tab

## # A tibble: 98 × 10
##    type     Outcome              Moderator Covariate      term2                  E                    A     C     N     O    
##    <chr>    <fct>                <fct>     <fct>          <fct>                  <chr>                <chr> <chr> <chr> <chr>
##  1 Bayesian Crystallized Ability None      None           Personality            <strong>-0.05<br>[-… <str… <str… <str… <str…
##  2 Bayesian Crystallized Ability None      Age            Personality            <strong>-0.05<br>[-… <str… <str… <str… <str…
##  3 Bayesian Crystallized Ability None      Gender         Personality            <strong>-0.06<br>[-… <str… <str… <str… <str…
##  4 Bayesian Crystallized Ability None      Education      Personality            <strong>-0.06<br>[-… -0.0… <str… <str… <str…
##  5 Bayesian Crystallized Ability None      Fully Adjusted Personality            <strong>-0.08<br>[-… <str… 0.01… <str… <str…
##  6 Bayesian Crystallized Ability Age       None           Age                    <strong>-0.00<br>[-… <str… -0.0… <str… <str…
##  7 Bayesian Crystallized Ability Age       Fully Adjusted Age                    <strong>-0.00<br>[-… <str… -0.0… <str… <str…
##  8 Bayesian Crystallized Ability Gender    None           Gender (Male v Female) <strong>0.09<br>[0.… 0.03… -0.0… -0.0… -0.0…
##  9 Bayesian Crystallized Ability Gender    Fully Adjusted Gender (Male v Female) <strong>0.09<br>[0.… 0.03… 0.00… -0.0… -0.0…
## 10 Bayesian Crystallized Ability Education None           Education (Years)      -0.001<br>[-0.01, 0… <str… <str… <str… -0.0…
## # ℹ 88 more rows
…
